<svg width="78" height="67" viewBox="0 0 78 67" fill="none" xmlns="http://www.w3.org/2000/svg">
<path d="M19 21.2222C19 23.4314 20.7909 25.2222 23 25.2222H32.7778C34.9869 25.2222 36.7778 23.4314 36.7778 21.2222V7C36.7778 4.79086 34.9869 3 32.7778 3H23C20.7909 3 19 4.79086 19 7V21.2222ZM19 39C19 41.2091 20.7909 43 23 43H32.7778C34.9869 43 36.7778 41.2091 36.7778 39V33.6667C36.7778 31.4575 34.9869 29.6667 32.7778 29.6667H23C20.7909 29.6667 19 31.4575 19 33.6667V39ZM41.2222 39C41.2222 41.2091 43.0131 43 45.2222 43H55C57.2091 43 59 41.2091 59 39V24.7778C59 22.5686 57.2091 20.7778 55 20.7778H45.2222C43.0131 20.7778 41.2222 22.5686 41.2222 24.7778V39ZM45.2222 3C43.0131 3 41.2222 4.79086 41.2222 7V12.3333C41.2222 14.5425 43.0131 16.3333 45.2222 16.3333H55C57.2091 16.3333 59 14.5425 59 12.3333V7C59 4.79086 57.2091 3 55 3H45.2222Z" fill="#DCE0ED"/>
</svg>
