<svg width="34" height="13" viewBox="0 0 34 13" fill="none" xmlns="http://www.w3.org/2000/svg">
<path fill-rule="evenodd" clip-rule="evenodd" d="M31.8112 5.81379V5.48372H32.7756C33.0831 5.49959 33.3845 5.39315 33.6138 5.18764C33.8432 4.98212 33.9819 4.69422 33.9998 4.38678V2.1929C33.9819 1.88545 33.8432 1.59755 33.6138 1.39204C33.3845 1.18652 33.0831 1.08009 32.7756 1.09596H31.5139C31.4191 0.93243 31.3027 0.780472 31.1667 0.644489C30.7557 0.233433 30.1986 0.00173569 29.6173 0H4.38769C3.80637 0.00173569 3.24936 0.233433 2.8383 0.644489C2.7018 0.780987 2.58508 0.933578 2.48999 1.09781L2.49005 1.0969H1.51378C0.680103 1.0969 0 1.59053 0 2.19385V4.38773C0 4.99104 0.680103 5.48467 1.51378 5.48467H2.19381V5.81379C2.19296 6.31262 2.36334 6.79664 2.67646 7.18496L3.24687 7.90894L5.92341 11.2436C5.95595 11.2774 5.98532 11.3142 6.01116 11.3533C6.21776 11.578 6.46871 11.7573 6.74815 11.88C7.02758 12.0028 7.32944 12.0662 7.63463 12.0663H12.4063C12.9246 12.0644 13.4255 11.8795 13.8208 11.5444C14.2161 11.2093 14.4805 10.7454 14.5673 10.2345L15.0829 7.10818C15.1598 6.65472 15.3947 6.24313 15.7461 5.94634C16.0975 5.64956 16.5426 5.48674 17.0025 5.48674C17.4624 5.48674 17.9075 5.64956 18.2589 5.94634C18.6103 6.24313 18.8452 6.65472 18.9222 7.10818L19.3061 9.40078L19.4377 10.2345C19.5245 10.7454 19.7889 11.2093 20.1842 11.5444C20.5795 11.8795 21.0804 12.0644 21.5987 12.0663H26.3704C26.6989 12.0656 27.0231 11.9913 27.3192 11.849C27.6153 11.7066 27.8758 11.4998 28.0816 11.2436L31.3285 7.18496C31.6417 6.79664 31.812 6.31262 31.8112 5.81379Z" fill="#D3D3D3"/>
</svg>
