<svg width="295" height="295" viewBox="0 0 295 295" fill="none" xmlns="http://www.w3.org/2000/svg">
<mask id="mask0_524_929" style="mask-type:alpha" maskUnits="userSpaceOnUse" x="0" y="0" width="295" height="295">
<path fill-rule="evenodd" clip-rule="evenodd" d="M147.5 295C228.962 295 295 228.962 295 147.5C295 66.038 228.962 0 147.5 0C66.038 0 0 66.038 0 147.5C0 228.962 66.038 295 147.5 295ZM145 233C190.84 233 228 195.84 228 150C228 104.16 190.84 67 145 67C99.1604 67 62 104.16 62 150C62 195.84 99.1604 233 145 233Z" fill="#D9D9D9"/>
</mask>
<g mask="url(#mask0_524_929)">
<path d="M237.217 57.6368C254.122 74.4761 265.996 95.6637 271.515 118.835C277.035 142.006 275.981 166.249 268.472 188.858C260.964 211.468 247.296 231.554 228.993 246.875C210.691 262.196 188.474 272.15 164.823 275.625L146 148.5L237.217 57.6368Z" fill="#0066FF"/>
<path d="M164.94 275.607C136.128 279.868 106.716 274.289 81.4909 259.779C56.2663 245.269 36.7138 222.683 26.0156 195.695C15.3175 168.708 14.1033 138.908 22.5709 111.145C31.0384 83.383 48.6891 59.2924 72.6504 42.7942L146 148.5L164.94 275.607Z" fill="#A3EEFF"/>
<g filter="url(#filter0_d_524_929)">
<mask id="path-4-inside-1_524_929" fill="white">
<path d="M72.0214 43.2301C97.0298 25.7913 127.436 17.7521 157.835 20.5419C188.233 23.3317 216.653 36.7697 238.042 58.4666L146 148.5L72.0214 43.2301Z"/>
</mask>
<path d="M72.0214 43.2301C97.0298 25.7913 127.436 17.7521 157.835 20.5419C188.233 23.3317 216.653 36.7697 238.042 58.4666L146 148.5L72.0214 43.2301Z" fill="#00B3FF"/>
<path d="M72.0214 43.2301C97.0298 25.7913 127.436 17.7521 157.835 20.5419C188.233 23.3317 216.653 36.7697 238.042 58.4666L146 148.5L72.0214 43.2301Z" stroke="white" stroke-width="8" stroke-linejoin="round" mask="url(#path-4-inside-1_524_929)"/>
</g>
</g>
<defs>
<filter id="filter0_d_524_929" x="31.0195" y="-7" width="234.023" height="196.5" filterUnits="userSpaceOnUse" color-interpolation-filters="sRGB">
<feFlood flood-opacity="0" result="BackgroundImageFix"/>
<feColorMatrix in="SourceAlpha" type="matrix" values="0 0 0 0 0 0 0 0 0 0 0 0 0 0 0 0 0 0 127 0" result="hardAlpha"/>
<feOffset dx="-7" dy="7"/>
<feGaussianBlur stdDeviation="17"/>
<feComposite in2="hardAlpha" operator="out"/>
<feColorMatrix type="matrix" values="0 0 0 0 0.00421352 0 0 0 0 0.0886299 0 0 0 0 0.367204 0 0 0 1 0"/>
<feBlend mode="normal" in2="BackgroundImageFix" result="effect1_dropShadow_524_929"/>
<feBlend mode="normal" in="SourceGraphic" in2="effect1_dropShadow_524_929" result="shape"/>
</filter>
</defs>
</svg>
