<svg width="20" height="16" viewBox="0 0 20 16" fill="none" xmlns="http://www.w3.org/2000/svg">
<path d="M19 5C19.5523 5 20 4.55228 20 4V1C20 0.44772 19.5523 0 19 0H16C15.4477 0 15 0.44772 15 1C15 1.55228 15.4477 2 16 2H18V4C18 4.55228 18.4477 5 19 5Z" fill="white"/>
<path fill-rule="evenodd" clip-rule="evenodd" d="M3 6C3 4.34315 4.34315 3 6 3H14C15.6569 3 17 4.34315 17 6V10C17 11.6569 15.6569 13 14 13H6C4.34315 13 3 11.6569 3 10V6ZM6 5C5.44772 5 5 5.44772 5 6V10C5 10.5523 5.44772 11 6 11H14C14.5523 11 15 10.5523 15 10V6C15 5.44772 14.5523 5 14 5H6Z" fill="white"/>
<path d="M19 11C19.5523 11 20 11.4477 20 12V15C20 15.5523 19.5523 16 19 16H16C15.4477 16 15 15.5523 15 15C15 14.4477 15.4477 14 16 14H18V12C18 11.4477 18.4477 11 19 11ZM0 12C0 11.4477 0.44772 11 1 11C1.55228 11 2 11.4477 2 12V14H4C4.55228 14 5 14.4477 5 15C5 15.5523 4.55228 16 4 16H1C0.44772 16 0 15.5523 0 15V12ZM0 4C0 4.55228 0.44772 5 1 5C1.55228 5 2 4.55228 2 4V2H4C4.55228 2 5 1.55228 5 1C5 0.44772 4.55228 0 4 0H1C0.44772 0 0 0.44772 0 1V4Z" fill="white"/>
</svg>
