<svg width="50" height="50" viewBox="0 0 50 50" fill="none" xmlns="http://www.w3.org/2000/svg">
<path d="M6.5 6.5L25 25L43.5 43.5M43.5 6.5L6.5 43.5" stroke="white" stroke-width="13" stroke-linecap="round"/>
</svg>
