<svg width="17" height="17" viewBox="0 0 17 17" fill="none" xmlns="http://www.w3.org/2000/svg">
<rect x="0.5" y="0.5" width="16" height="16" rx="2.5" stroke="white"/>
<rect x="2.5" y="7.5" width="4" height="4" rx="0.5" stroke="white"/>
<path d="M0.5 5.5H16.5" stroke="white"/>
</svg>
