<svg width="295" height="295" viewBox="0 0 295 295" fill="none" xmlns="http://www.w3.org/2000/svg">
<mask id="mask0_518_1019" style="mask-type:alpha" maskUnits="userSpaceOnUse" x="0" y="0" width="295" height="295">
<path fill-rule="evenodd" clip-rule="evenodd" d="M147.5 295C228.962 295 295 228.962 295 147.5C295 66.038 228.962 0 147.5 0C66.038 0 0 66.038 0 147.5C0 228.962 66.038 295 147.5 295ZM145 233C190.84 233 228 195.84 228 150C228 104.16 190.84 67 145 67C99.1604 67 62 104.16 62 150C62 195.84 99.1604 233 145 233Z" fill="#D9D9D9"/>
</mask>
<g mask="url(#mask0_518_1019)">
<path d="M275 148.5C275 167.692 270.684 186.641 262.37 203.954C254.055 221.267 241.953 236.505 226.952 248.548L146 148.5H275Z" fill="#0066FF"/>
<path d="M227.124 248.41C213.608 259.3 198.021 267.356 181.301 272.095C164.581 276.834 147.072 278.157 129.825 275.986C112.578 273.815 95.9502 268.193 80.9392 259.46C65.9283 250.726 52.8442 239.061 42.473 225.164C32.1017 211.267 24.6572 195.425 20.5865 178.59C16.5159 161.755 15.9031 144.274 18.785 127.197C21.6669 110.12 27.9841 93.7999 37.357 79.216C46.7299 64.6322 58.9652 52.086 73.3281 42.3308L146 148.5L227.124 248.41Z" fill="#A3EEFF"/>
<g filter="url(#filter0_d_518_1019)">
<mask id="path-4-inside-1_518_1019" fill="white">
<path d="M73.149 42.4526C92.5623 29.2195 115.239 21.526 138.725 20.2045C162.211 18.883 185.613 23.9838 206.399 34.955C227.185 45.9262 244.563 62.3502 256.654 82.4503C268.746 102.55 275.089 125.561 274.999 148.993L146 148.5L73.149 42.4526Z"/>
</mask>
<path d="M73.149 42.4526C92.5623 29.2195 115.239 21.526 138.725 20.2045C162.211 18.883 185.613 23.9838 206.399 34.955C227.185 45.9262 244.563 62.3502 256.654 82.4503C268.746 102.55 275.089 125.561 274.999 148.993L146 148.5L73.149 42.4526Z" fill="#00B3FF"/>
<path d="M73.149 42.4526C92.5623 29.2195 115.239 21.526 138.725 20.2045C162.211 18.883 185.613 23.9838 206.399 34.955C227.185 45.9262 244.563 62.3502 256.654 82.4503C268.746 102.55 275.089 125.561 274.999 148.993L146 148.5L73.149 42.4526Z" stroke="white" stroke-width="8" stroke-linejoin="round" mask="url(#path-4-inside-1_518_1019)"/>
</g>
</g>
<defs>
<filter id="filter0_d_518_1019" x="33.1484" y="-1" width="261.852" height="188.994" filterUnits="userSpaceOnUse" color-interpolation-filters="sRGB">
<feFlood flood-opacity="0" result="BackgroundImageFix"/>
<feColorMatrix in="SourceAlpha" type="matrix" values="0 0 0 0 0 0 0 0 0 0 0 0 0 0 0 0 0 0 127 0" result="hardAlpha"/>
<feOffset dx="-10" dy="9"/>
<feGaussianBlur stdDeviation="15"/>
<feComposite in2="hardAlpha" operator="out"/>
<feColorMatrix type="matrix" values="0 0 0 0 0.00421352 0 0 0 0 0.0886299 0 0 0 0 0.367204 0 0 0 1 0"/>
<feBlend mode="normal" in2="BackgroundImageFix" result="effect1_dropShadow_518_1019"/>
<feBlend mode="normal" in="SourceGraphic" in2="effect1_dropShadow_518_1019" result="shape"/>
</filter>
</defs>
</svg>
