<svg width="258" height="257" viewBox="0 0 258 257" fill="none" xmlns="http://www.w3.org/2000/svg">
<mask id="mask0_490_886" style="mask-type:alpha" maskUnits="userSpaceOnUse" x="-17" y="-20" width="295" height="295">
<path fill-rule="evenodd" clip-rule="evenodd" d="M130.5 275C211.962 275 278 208.962 278 127.5C278 46.038 211.962 -20 130.5 -20C49.038 -20 -17 46.038 -17 127.5C-17 208.962 49.038 275 130.5 275ZM128 213C173.84 213 211 175.84 211 130C211 84.1604 173.84 47 128 47C82.1604 47 45 84.1604 45 130C45 175.84 82.1604 213 128 213Z" fill="#D9D9D9"/>
</mask>
<g mask="url(#mask0_490_886)">
<path d="M258 128.5C258 147.175 253.914 165.626 246.025 182.568C238.137 199.509 226.636 214.535 212.324 226.597L129 128.5H258Z" fill="#0066FF"/>
<path d="M210.124 228.41C196.608 239.3 181.021 247.356 164.301 252.095C147.581 256.834 130.072 258.157 112.825 255.986C95.5783 253.815 78.9502 248.193 63.9392 239.46C48.9283 230.726 35.8442 219.061 25.473 205.164C15.1017 191.267 7.65716 175.425 3.58652 158.59C-0.484116 141.755 -1.09688 124.274 1.78503 107.197C4.66694 90.1203 10.9841 73.7999 20.357 59.216C29.7299 44.6322 41.9652 32.086 56.3281 22.3308L129 128.5L210.124 228.41Z" fill="#0940AA"/>
<path d="M58.8971 20.6304C78.18 8.19565 100.446 1.11544 123.396 0.12133C146.345 -0.872782 169.144 4.25526 189.438 14.9756C209.731 25.6959 226.783 41.6196 238.832 61.1014C250.88 80.5831 257.487 102.916 257.971 125.793L129 128.5L58.8971 20.6304Z" fill="#00B0FC"/>
</g>
</svg>
