<svg width="441" height="122" viewBox="0 0 441 122" fill="none" xmlns="http://www.w3.org/2000/svg">
<path d="M0.387034 119.695C12.7304 104.516 46.7248 73.6576 83.9551 71.656C130.493 69.154 187.039 53.1409 210.558 26.1189C234.077 -0.903129 278.113 -9.41006 299.631 14.6095C321.148 38.6291 353.675 112.689 379.696 119.695C400.513 125.3 429.07 113.023 440.746 106.184" stroke="#2C56DC"/>
</svg>
