<svg width="39" height="45" viewBox="0 0 39 45" fill="none" xmlns="http://www.w3.org/2000/svg">
<path d="M38.2709 17.6884C37.35 16.8383 35.8548 16.8916 34.9752 17.8419L34.4182 18.4437C34.2951 18.5767 34.1259 18.657 33.9477 18.6669C33.7695 18.6769 33.5971 18.6156 33.4682 18.4967C33.3393 18.3777 33.2647 18.2108 33.2606 18.0326C33.2565 17.8544 33.3234 17.6796 33.4465 17.5466L36.0945 14.6856C36.5166 14.2296 36.7459 13.6303 36.7319 13.0194C36.7179 12.4086 36.4619 11.8363 36.0201 11.4284C35.5783 11.0205 34.9869 10.8105 34.3761 10.8446C33.7652 10.8786 33.1849 11.1539 32.7629 11.6099L30.7035 13.8349C30.5804 13.9679 30.4112 14.0482 30.233 14.0581C30.0548 14.0681 29.8823 14.0068 29.7535 13.8878C29.6246 13.7689 29.5499 13.602 29.5459 13.4238C29.5418 13.2456 29.6087 13.0708 29.7318 12.9378L33.6468 8.70792C34.0689 8.25192 34.2982 7.65257 34.2842 7.04172C34.2702 6.43088 34.0142 5.85857 33.5724 5.45071C33.1306 5.04285 32.5392 4.83283 31.9284 4.86687C31.3175 4.90091 30.7372 5.17621 30.3152 5.63221L26.9883 9.2266C26.8652 9.3596 26.696 9.4399 26.5178 9.44983C26.3397 9.45975 26.1672 9.3985 26.0383 9.27954C25.9095 9.16058 25.8348 8.99366 25.8307 8.81549C25.8266 8.63733 25.8935 8.46252 26.0166 8.32952L30.1675 3.84486C30.5895 3.38886 30.8188 2.78951 30.8048 2.17867C30.7909 1.56782 30.5348 0.995518 30.093 0.587654C29.6512 0.17979 29.0598 -0.0302225 28.449 0.00381573C27.8381 0.0378546 27.2579 0.313157 26.8358 0.769159L15.9915 12.4855C15.9838 12.5615 15.951 12.6336 15.8984 12.6904C15.8458 12.7472 15.7765 12.7855 15.7012 12.7992L5.7699 23.5291L22.0811 38.5873L38.3763 20.9817C39.2558 20.0314 39.1917 18.5384 38.2709 17.6884ZM13.6208 7.32225C13.1401 6.87846 12.5341 6.59167 11.8794 6.49814C11.2247 6.40461 10.5505 6.50853 9.9422 6.79676C9.33387 7.085 8.81866 7.54462 8.46166 8.11753C8.10467 8.69045 7.92191 9.35096 7.93649 10.0156L8.13948 19.0221L14.706 11.9274L14.6564 9.64072C14.648 9.19978 14.5521 8.76778 14.3744 8.36978C14.1966 7.97179 13.9404 7.61572 13.6208 7.32225Z" fill="white"/>
<path d="M21.5375 39.4406L5.08422 24.2463L0.00095079 29.7402L16.4542 44.9345L21.5375 39.4406Z" fill="white"/>
</svg>
