<svg width="1050" height="621" viewBox="0 0 1050 621" fill="none" xmlns="http://www.w3.org/2000/svg">
<mask id="path-1-inside-1_738_2945" fill="white">
<path fill-rule="evenodd" clip-rule="evenodd" d="M5 0C2.23858 0 0 2.23857 0 4.99999V616C0 618.761 2.23861 621 5.00003 621H1045C1047.76 621 1050 618.761 1050 616V5C1050 2.23858 1047.76 0 1045 0H5ZM740 319H532V428H740V319Z"/>
</mask>
<path fill-rule="evenodd" clip-rule="evenodd" d="M5 0C2.23858 0 0 2.23857 0 4.99999V616C0 618.761 2.23861 621 5.00003 621H1045C1047.76 621 1050 618.761 1050 616V5C1050 2.23858 1047.76 0 1045 0H5ZM740 319H532V428H740V319Z" fill="black" fill-opacity="0.5"/>
<path d="M532 319V318.5H531.5V319H532ZM740 319H740.5V318.5H740V319ZM532 428H531.5V428.5H532V428ZM740 428V428.5H740.5V428H740ZM-0.5 4.99999V7.50409H0.5V4.99999H-0.5ZM-0.5 12.5123V17.5205H0.5V12.5123H-0.5ZM-0.5 22.5287V27.5369H0.5V22.5287H-0.5ZM-0.5 32.5451V37.5533H0.5V32.5451H-0.5ZM-0.5 42.5615V47.5697H0.5V42.5615H-0.5ZM-0.5 52.5779V57.5861H0.5V52.5779H-0.5ZM-0.5 62.5943V67.6025H0.5V62.5943H-0.5ZM-0.5 72.6107V77.6189H0.5V72.6107H-0.5ZM-0.5 82.627V87.6352H0.5V82.627H-0.5ZM-0.5 92.6434V97.6516H0.5V92.6434H-0.5ZM-0.5 102.66V107.668H0.5V102.66H-0.5ZM-0.5 112.676V117.684H0.5V112.676H-0.5ZM-0.5 122.693V127.701H0.5V122.693H-0.5ZM-0.5 132.709V137.717H0.5V132.709H-0.5ZM-0.5 142.725V147.734H0.5V142.725H-0.5ZM-0.5 152.742V157.75H0.5V152.742H-0.5ZM-0.5 162.758V167.766H0.5V162.758H-0.5ZM-0.5 172.775V177.783H0.5V172.775H-0.5ZM-0.5 182.791V187.799H0.5V182.791H-0.5ZM-0.5 192.807V197.816H0.5V192.807H-0.5ZM-0.5 202.824V207.832H0.5V202.824H-0.5ZM-0.5 212.84V217.848H0.5V212.84H-0.5ZM-0.5 222.856V227.865H0.5V222.856H-0.5ZM-0.5 232.873V237.881H0.5V232.873H-0.5ZM-0.5 242.889V247.897H0.5V242.889H-0.5ZM-0.5 252.906V257.914H0.5V252.906H-0.5ZM-0.5 262.922V267.93H0.5V262.922H-0.5ZM-0.5 272.938V277.947H0.5V272.938H-0.5ZM-0.5 282.955V287.963H0.5V282.955H-0.5ZM-0.5 292.971V297.98H0.5V292.971H-0.5ZM-0.5 302.988V307.996H0.5V302.988H-0.5ZM-0.5 313.004V318.012H0.5V313.004H-0.5ZM-0.5 323.021V328.029H0.5V323.021H-0.5ZM-0.5 333.037V338.045H0.5V333.037H-0.5ZM-0.5 343.053V348.062H0.5V343.053H-0.5ZM-0.5 353.07V358.078H0.5V353.07H-0.5ZM-0.5 363.086V368.094H0.5V363.086H-0.5ZM-0.5 373.103V378.111H0.5V373.103H-0.5ZM-0.5 383.119V388.127H0.5V383.119H-0.5ZM-0.5 393.135V398.144H0.5V393.135H-0.5ZM-0.5 403.152V408.16H0.5V403.152H-0.5ZM-0.5 413.168V418.177H0.5V413.168H-0.5ZM-0.5 423.185V428.193H0.5V423.185H-0.5ZM-0.5 433.201V438.209H0.5V433.201H-0.5ZM-0.5 443.218V448.226H0.5V443.218H-0.5ZM-0.5 453.234V458.242H0.5V453.234H-0.5ZM-0.5 463.25V468.259H0.5V463.25H-0.5ZM-0.5 473.267V478.275H0.5V473.267H-0.5ZM-0.5 483.283V488.291H0.5V483.283H-0.5ZM-0.5 493.3V498.308H0.5V493.3H-0.5ZM-0.5 503.316V508.324H0.5V503.316H-0.5ZM-0.5 513.333V518.341H0.5V513.333H-0.5ZM-0.5 523.349V528.357H0.5V523.349H-0.5ZM-0.5 533.365V538.373H0.5V533.365H-0.5ZM-0.5 543.382V548.39H0.5V543.382H-0.5ZM-0.5 553.398V558.406H0.5V553.398H-0.5ZM-0.5 563.414V568.422H0.5V563.414H-0.5ZM-0.5 573.431V578.439H0.5V573.431H-0.5ZM-0.5 583.447V588.455H0.5V583.447H-0.5ZM-0.5 593.463V598.472H0.5V593.463H-0.5ZM-0.5 603.48V608.488H0.5V603.48H-0.5ZM-0.5 613.496V616H0.5V613.496H-0.5ZM-0.5 616C-0.5 616.745 -0.351664 617.456 -0.0824516 618.105L0.841272 617.722C0.621531 617.193 0.5 616.611 0.5 616H-0.5ZM2.89456 621.082C3.54375 621.352 4.2552 621.5 5.00003 621.5V620.5C4.38895 620.5 3.80751 620.378 3.27761 620.159L2.89456 621.082ZM5.00003 621.5H7.50003V620.5H5.00003V621.5ZM12.5 621.5H17.5V620.5H12.5V621.5ZM22.5 621.5H27.5V620.5H22.5V621.5ZM32.5 621.5H37.5V620.5H32.5V621.5ZM42.5 621.5H47.5V620.5H42.5V621.5ZM52.5 621.5H57.5V620.5H52.5V621.5ZM62.5 621.5H67.5V620.5H62.5V621.5ZM72.5 621.5H77.5V620.5H72.5V621.5ZM82.5 621.5H87.5V620.5H82.5V621.5ZM92.5 621.5H97.5V620.5H92.5V621.5ZM102.5 621.5H107.5V620.5H102.5V621.5ZM112.5 621.5H117.5V620.5H112.5V621.5ZM122.5 621.5H127.5V620.5H122.5V621.5ZM132.5 621.5H137.5V620.5H132.5V621.5ZM142.5 621.5H147.5V620.5H142.5V621.5ZM152.5 621.5H157.5V620.5H152.5V621.5ZM162.5 621.5H167.5V620.5H162.5V621.5ZM172.5 621.5H177.5V620.5H172.5V621.5ZM182.5 621.5H187.5V620.5H182.5V621.5ZM192.5 621.5H197.5V620.5H192.5V621.5ZM202.5 621.5H207.5V620.5H202.5V621.5ZM212.5 621.5H217.5V620.5H212.5V621.5ZM222.5 621.5H227.5V620.5H222.5V621.5ZM232.5 621.5H237.5V620.5H232.5V621.5ZM242.5 621.5H247.5V620.5H242.5V621.5ZM252.5 621.5H257.5V620.5H252.5V621.5ZM262.5 621.5H267.5V620.5H262.5V621.5ZM272.5 621.5H277.5V620.5H272.5V621.5ZM282.5 621.5H287.5V620.5H282.5V621.5ZM292.5 621.5H297.5V620.5H292.5V621.5ZM302.5 621.5H307.5V620.5H302.5V621.5ZM312.5 621.5H317.5V620.5H312.5V621.5ZM322.5 621.5H327.5V620.5H322.5V621.5ZM332.5 621.5H337.5V620.5H332.5V621.5ZM342.5 621.5H347.5V620.5H342.5V621.5ZM352.5 621.5H357.5V620.5H352.5V621.5ZM362.5 621.5H367.5V620.5H362.5V621.5ZM372.5 621.5H377.5V620.5H372.5V621.5ZM382.5 621.5H387.5V620.5H382.5V621.5ZM392.5 621.5H397.5V620.5H392.5V621.5ZM402.5 621.5H407.5V620.5H402.5V621.5ZM412.5 621.5H417.5V620.5H412.5V621.5ZM422.5 621.5H427.5V620.5H422.5V621.5ZM432.5 621.5H437.5V620.5H432.5V621.5ZM442.5 621.5H447.5V620.5H442.5V621.5ZM452.5 621.5H457.5V620.5H452.5V621.5ZM462.5 621.5H467.5V620.5H462.5V621.5ZM472.5 621.5H477.5V620.5H472.5V621.5ZM482.5 621.5H487.5V620.5H482.5V621.5ZM492.5 621.5H497.5V620.5H492.5V621.5ZM502.5 621.5H507.5V620.5H502.5V621.5ZM512.5 621.5H517.5V620.5H512.5V621.5ZM522.5 621.5H527.5V620.5H522.5V621.5ZM532.5 621.5H537.5V620.5H532.5V621.5ZM542.5 621.5H547.5V620.5H542.5V621.5ZM552.5 621.5H557.5V620.5H552.5V621.5ZM562.5 621.5H567.5V620.5H562.5V621.5ZM572.5 621.5H577.5V620.5H572.5V621.5ZM582.5 621.5H587.5V620.5H582.5V621.5ZM592.5 621.5H597.5V620.5H592.5V621.5ZM602.5 621.5H607.5V620.5H602.5V621.5ZM612.5 621.5H617.5V620.5H612.5V621.5ZM622.5 621.5H627.5V620.5H622.5V621.5ZM632.5 621.5H637.5V620.5H632.5V621.5ZM642.5 621.5H647.5V620.5H642.5V621.5ZM652.5 621.5H657.5V620.5H652.5V621.5ZM662.5 621.5H667.5V620.5H662.5V621.5ZM672.5 621.5H677.5V620.5H672.5V621.5ZM682.5 621.5H687.5V620.5H682.5V621.5ZM692.5 621.5H697.5V620.5H692.5V621.5ZM702.5 621.5H707.5V620.5H702.5V621.5ZM712.5 621.5H717.5V620.5H712.5V621.5ZM722.5 621.5H727.5V620.5H722.5V621.5ZM732.5 621.5H737.5V620.5H732.5V621.5ZM742.5 621.5H747.5V620.5H742.5V621.5ZM752.5 621.5H757.5V620.5H752.5V621.5ZM762.5 621.5H767.5V620.5H762.5V621.5ZM772.5 621.5H777.5V620.5H772.5V621.5ZM782.5 621.5H787.5V620.5H782.5V621.5ZM792.5 621.5H797.5V620.5H792.5V621.5ZM802.5 621.5H807.5V620.5H802.5V621.5ZM812.5 621.5H817.5V620.5H812.5V621.5ZM822.5 621.5H827.5V620.5H822.5V621.5ZM832.5 621.5H837.5V620.5H832.5V621.5ZM842.5 621.5H847.5V620.5H842.5V621.5ZM852.5 621.5H857.5V620.5H852.5V621.5ZM862.5 621.5H867.5V620.5H862.5V621.5ZM872.5 621.5H877.5V620.5H872.5V621.5ZM882.5 621.5H887.5V620.5H882.5V621.5ZM892.5 621.5H897.5V620.5H892.5V621.5ZM902.5 621.5H907.5V620.5H902.5V621.5ZM912.5 621.5H917.5V620.5H912.5V621.5ZM922.5 621.5H927.5V620.5H922.5V621.5ZM932.5 621.5H937.5V620.5H932.5V621.5ZM942.5 621.5H947.5V620.5H942.5V621.5ZM952.5 621.5H957.5V620.5H952.5V621.5ZM962.5 621.5H967.5V620.5H962.5V621.5ZM972.5 621.5H977.5V620.5H972.5V621.5ZM982.5 621.5H987.5V620.5H982.5V621.5ZM992.5 621.5H997.5V620.5H992.5V621.5ZM1002.5 621.5H1007.5V620.5H1002.5V621.5ZM1012.5 621.5H1017.5V620.5H1012.5V621.5ZM1022.5 621.5H1027.5V620.5H1022.5V621.5ZM1032.5 621.5H1037.5V620.5H1032.5V621.5ZM1042.5 621.5H1045V620.5H1042.5V621.5ZM1045 621.5C1045.74 621.5 1046.46 621.352 1047.11 621.082L1046.72 620.159C1046.19 620.378 1045.61 620.5 1045 620.5V621.5ZM1050.08 618.105C1050.35 617.456 1050.5 616.745 1050.5 616H1049.5C1049.5 616.611 1049.38 617.193 1049.16 617.722L1050.08 618.105ZM1050.5 616V613.496H1049.5V616H1050.5ZM1050.5 608.488V603.479H1049.5V608.488H1050.5ZM1050.5 598.471V593.463H1049.5V598.471H1050.5ZM1050.5 588.455V583.447H1049.5V588.455H1050.5ZM1050.5 578.439V573.43H1049.5V578.439H1050.5ZM1050.5 568.422V563.414H1049.5V568.422H1050.5ZM1050.5 558.406V553.398H1049.5V558.406H1050.5ZM1050.5 548.389V543.381H1049.5V548.389H1050.5ZM1050.5 538.373V533.365H1049.5V538.373H1050.5ZM1050.5 528.357V523.348H1049.5V528.357H1050.5ZM1050.5 518.34V513.332H1049.5V518.34H1050.5ZM1050.5 508.324V503.316H1049.5V508.324H1050.5ZM1050.5 498.307V493.299H1049.5V498.307H1050.5ZM1050.5 488.291V483.283H1049.5V488.291H1050.5ZM1050.5 478.275V473.266H1049.5V478.275H1050.5ZM1050.5 468.258V463.25H1049.5V468.258H1050.5ZM1050.5 458.242V453.234H1049.5V458.242H1050.5ZM1050.5 448.225V443.217H1049.5V448.225H1050.5ZM1050.5 438.209V433.201H1049.5V438.209H1050.5ZM1050.5 428.193V423.184H1049.5V428.193H1050.5ZM1050.5 418.176V413.168H1049.5V418.176H1050.5ZM1050.5 408.16V403.152H1049.5V408.16H1050.5ZM1050.5 398.143V393.135H1049.5V398.143H1050.5ZM1050.5 388.127V383.119H1049.5V388.127H1050.5ZM1050.5 378.111V373.103H1049.5V378.111H1050.5ZM1050.5 368.094V363.086H1049.5V368.094H1050.5ZM1050.5 358.078V353.07H1049.5V358.078H1050.5ZM1050.5 348.062V343.053H1049.5V348.062H1050.5ZM1050.5 338.045V333.037H1049.5V338.045H1050.5ZM1050.5 328.029V323.02H1049.5V328.029H1050.5ZM1050.5 318.012V313.004H1049.5V318.012H1050.5ZM1050.5 307.996V302.988H1049.5V307.996H1050.5ZM1050.5 297.979V292.971H1049.5V297.979H1050.5ZM1050.5 287.963V282.955H1049.5V287.963H1050.5ZM1050.5 277.947V272.938H1049.5V277.947H1050.5ZM1050.5 267.93V262.922H1049.5V267.93H1050.5ZM1050.5 257.914V252.906H1049.5V257.914H1050.5ZM1050.5 247.897V242.889H1049.5V247.897H1050.5ZM1050.5 237.881V232.873H1049.5V237.881H1050.5ZM1050.5 227.864V222.856H1049.5V227.864H1050.5ZM1050.5 217.848V212.84H1049.5V217.848H1050.5ZM1050.5 207.832V202.823H1049.5V207.832H1050.5ZM1050.5 197.815V192.807H1049.5V197.815H1050.5ZM1050.5 187.799V182.791H1049.5V187.799H1050.5ZM1050.5 177.782V172.774H1049.5V177.782H1050.5ZM1050.5 167.766V162.758H1049.5V167.766H1050.5ZM1050.5 157.75V152.741H1049.5V157.75H1050.5ZM1050.5 147.733V142.725H1049.5V147.733H1050.5ZM1050.5 137.717V132.709H1049.5V137.717H1050.5ZM1050.5 127.7V122.692H1049.5V127.7H1050.5ZM1050.5 117.684V112.676H1049.5V117.684H1050.5ZM1050.5 107.667V102.659H1049.5V107.667H1050.5ZM1050.5 97.6511V92.6429H1049.5V97.6511H1050.5ZM1050.5 87.6348V82.6266H1049.5V87.6348H1050.5ZM1050.5 77.6184V72.6102H1049.5V77.6184H1050.5ZM1050.5 67.6021V62.5939H1049.5V67.6021H1050.5ZM1050.5 57.5857V52.5775H1049.5V57.5857H1050.5ZM1050.5 47.5693V42.5611H1049.5V47.5693H1050.5ZM1050.5 37.553V32.5448H1049.5V37.553H1050.5ZM1050.5 27.5366V22.5285H1049.5V27.5366H1050.5ZM1050.5 17.5203V12.5121H1049.5V17.5203H1050.5ZM1050.5 7.50391V5H1049.5V7.50391H1050.5ZM1050.5 5C1050.5 4.25517 1050.35 3.54372 1050.08 2.89454L1049.16 3.2776C1049.38 3.80749 1049.5 4.38892 1049.5 5H1050.5ZM1047.11 -0.082449C1046.46 -0.351662 1045.74 -0.5 1045 -0.5V0.5C1045.61 0.5 1046.19 0.621531 1046.72 0.841274L1047.11 -0.082449ZM1045 -0.5H1042.5V0.5H1045V-0.5ZM1037.5 -0.5H1032.5V0.5H1037.5V-0.5ZM1027.5 -0.5H1022.5V0.5H1027.5V-0.5ZM1017.5 -0.5H1012.5V0.5H1017.5V-0.5ZM1007.5 -0.5H1002.5V0.5H1007.5V-0.5ZM997.5 -0.5H992.5V0.5H997.5V-0.5ZM987.5 -0.5H982.5V0.5H987.5V-0.5ZM977.5 -0.5H972.5V0.5H977.5V-0.5ZM967.5 -0.5H962.5V0.5H967.5V-0.5ZM957.5 -0.5H952.5V0.5H957.5V-0.5ZM947.5 -0.5H942.5V0.5H947.5V-0.5ZM937.5 -0.5H932.5V0.5H937.5V-0.5ZM927.5 -0.5H922.5V0.5H927.5V-0.5ZM917.5 -0.5H912.5V0.5H917.5V-0.5ZM907.5 -0.5H902.5V0.5H907.5V-0.5ZM897.5 -0.5H892.5V0.5H897.5V-0.5ZM887.5 -0.5H882.5V0.5H887.5V-0.5ZM877.5 -0.5H872.5V0.5H877.5V-0.5ZM867.5 -0.5H862.5V0.5H867.5V-0.5ZM857.5 -0.5H852.5V0.5H857.5V-0.5ZM847.5 -0.5H842.5V0.5H847.5V-0.5ZM837.5 -0.5H832.5V0.5H837.5V-0.5ZM827.5 -0.5H822.5V0.5H827.5V-0.5ZM817.5 -0.5H812.5V0.5H817.5V-0.5ZM807.5 -0.5H802.5V0.5H807.5V-0.5ZM797.5 -0.5H792.5V0.5H797.5V-0.5ZM787.5 -0.5H782.5V0.5H787.5V-0.5ZM777.5 -0.5H772.5V0.5H777.5V-0.5ZM767.5 -0.5H762.5V0.5H767.5V-0.5ZM757.5 -0.5H752.5V0.5H757.5V-0.5ZM747.5 -0.5H742.5V0.5H747.5V-0.5ZM737.5 -0.5H732.5V0.5H737.5V-0.5ZM727.5 -0.5H722.5V0.5H727.5V-0.5ZM717.5 -0.5H712.5V0.5H717.5V-0.5ZM707.5 -0.5H702.5V0.5H707.5V-0.5ZM697.5 -0.5H692.5V0.5H697.5V-0.5ZM687.5 -0.5H682.5V0.5H687.5V-0.5ZM677.5 -0.5H672.5V0.5H677.5V-0.5ZM667.5 -0.5H662.5V0.5H667.5V-0.5ZM657.5 -0.5H652.5V0.5H657.5V-0.5ZM647.5 -0.5H642.5V0.5H647.5V-0.5ZM637.5 -0.5H632.5V0.5H637.5V-0.5ZM627.5 -0.5H622.5V0.5H627.5V-0.5ZM617.5 -0.5H612.5V0.5H617.5V-0.5ZM607.5 -0.5H602.5V0.5H607.5V-0.5ZM597.5 -0.5H592.5V0.5H597.5V-0.5ZM587.5 -0.5H582.5V0.5H587.5V-0.5ZM577.5 -0.5H572.5V0.5H577.5V-0.5ZM567.5 -0.5H562.5V0.5H567.5V-0.5ZM557.5 -0.5H552.5V0.5H557.5V-0.5ZM547.5 -0.5H542.5V0.5H547.5V-0.5ZM537.5 -0.5H532.5V0.5H537.5V-0.5ZM527.5 -0.5H522.5V0.5H527.5V-0.5ZM517.5 -0.5H512.5V0.5H517.5V-0.5ZM507.5 -0.5H502.5V0.5H507.5V-0.5ZM497.5 -0.5H492.5V0.5H497.5V-0.5ZM487.5 -0.5H482.5V0.5H487.5V-0.5ZM477.5 -0.5H472.5V0.5H477.5V-0.5ZM467.5 -0.5H462.5V0.5H467.5V-0.5ZM457.5 -0.5H452.5V0.5H457.5V-0.5ZM447.5 -0.5H442.5V0.5H447.5V-0.5ZM437.5 -0.5H432.5V0.5H437.5V-0.5ZM427.5 -0.5H422.5V0.5H427.5V-0.5ZM417.5 -0.5H412.5V0.5H417.5V-0.5ZM407.5 -0.5H402.5V0.5H407.5V-0.5ZM397.5 -0.5H392.5V0.5H397.5V-0.5ZM387.5 -0.5H382.5V0.5H387.5V-0.5ZM377.5 -0.5H372.5V0.5H377.5V-0.5ZM367.5 -0.5H362.5V0.5H367.5V-0.5ZM357.5 -0.5H352.5V0.5H357.5V-0.5ZM347.5 -0.5H342.5V0.5H347.5V-0.5ZM337.5 -0.5H332.5V0.5H337.5V-0.5ZM327.5 -0.5H322.5V0.5H327.5V-0.5ZM317.5 -0.5H312.5V0.5H317.5V-0.5ZM307.5 -0.5H302.5V0.5H307.5V-0.5ZM297.5 -0.5H292.5V0.5H297.5V-0.5ZM287.5 -0.5H282.5V0.5H287.5V-0.5ZM277.5 -0.5H272.5V0.5H277.5V-0.5ZM267.5 -0.5H262.5V0.5H267.5V-0.5ZM257.5 -0.5H252.5V0.5H257.5V-0.5ZM247.5 -0.5H242.5V0.5H247.5V-0.5ZM237.5 -0.5H232.5V0.5H237.5V-0.5ZM227.5 -0.5H222.5V0.5H227.5V-0.5ZM217.5 -0.5H212.5V0.5H217.5V-0.5ZM207.5 -0.5H202.5V0.5H207.5V-0.5ZM197.5 -0.5H192.5V0.5H197.5V-0.5ZM187.5 -0.5H182.5V0.5H187.5V-0.5ZM177.5 -0.5H172.5V0.5H177.5V-0.5ZM167.5 -0.5H162.5V0.5H167.5V-0.5ZM157.5 -0.5H152.5V0.5H157.5V-0.5ZM147.5 -0.5H142.5V0.5H147.5V-0.5ZM137.5 -0.5H132.5V0.5H137.5V-0.5ZM127.5 -0.5H122.5V0.5H127.5V-0.5ZM117.5 -0.5H112.5V0.5H117.5V-0.5ZM107.5 -0.5H102.5V0.5H107.5V-0.5ZM97.5 -0.5H92.5V0.5H97.5V-0.5ZM87.5 -0.5H82.5V0.5H87.5V-0.5ZM77.5 -0.5H72.5V0.5H77.5V-0.5ZM67.5 -0.5H62.5V0.5H67.5V-0.5ZM57.5 -0.5H52.5V0.5H57.5V-0.5ZM47.5 -0.5H42.5V0.5H47.5V-0.5ZM37.5 -0.5H32.5V0.5H37.5V-0.5ZM27.5 -0.5H22.5V0.5H27.5V-0.5ZM17.5 -0.5H12.5V0.5H17.5V-0.5ZM7.50001 -0.5H5V0.5H7.50001V-0.5ZM5 -0.5C4.25517 -0.5 3.54372 -0.351668 2.89454 -0.0824627L3.27759 0.841264C3.80748 0.621528 4.38892 0.5 5 0.5V-0.5ZM-0.0824602 2.89453C-0.351667 3.54371 -0.5 4.25516 -0.5 4.99999H0.5C0.5 4.38891 0.621529 3.80747 0.841266 3.27758L-0.0824602 2.89453ZM531.5 319V321.477H532.5V319H531.5ZM531.5 326.432V331.386H532.5V326.432H531.5ZM531.5 336.341V341.295H532.5V336.341H531.5ZM531.5 346.25V351.205H532.5V346.25H531.5ZM531.5 356.159V361.114H532.5V356.159H531.5ZM531.5 366.068V371.023H532.5V366.068H531.5ZM531.5 375.977V380.932H532.5V375.977H531.5ZM531.5 385.886V390.841H532.5V385.886H531.5ZM531.5 395.795V400.75H532.5V395.795H531.5ZM531.5 405.705V410.659H532.5V405.705H531.5ZM531.5 415.614V420.568H532.5V415.614H531.5ZM531.5 425.523V428H532.5V425.523H531.5ZM532 428.5H534.476V427.5H532V428.5ZM539.429 428.5H544.381V427.5H539.429V428.5ZM549.333 428.5H554.286V427.5H549.333V428.5ZM559.238 428.5H564.19V427.5H559.238V428.5ZM569.143 428.5H574.095V427.5H569.143V428.5ZM579.048 428.5H584V427.5H579.048V428.5ZM588.952 428.5H593.905V427.5H588.952V428.5ZM598.857 428.5H603.81V427.5H598.857V428.5ZM608.762 428.5H613.714V427.5H608.762V428.5ZM618.667 428.5H623.619V427.5H618.667V428.5ZM628.571 428.5H633.524V427.5H628.571V428.5ZM638.476 428.5H643.429V427.5H638.476V428.5ZM648.381 428.5H653.333V427.5H648.381V428.5ZM658.286 428.5H663.238V427.5H658.286V428.5ZM668.19 428.5H673.143V427.5H668.19V428.5ZM678.095 428.5H683.048V427.5H678.095V428.5ZM688 428.5H692.952V427.5H688V428.5ZM697.905 428.5H702.857V427.5H697.905V428.5ZM707.809 428.5H712.762V427.5H707.809V428.5ZM717.714 428.5H722.667V427.5H717.714V428.5ZM727.619 428.5H732.571V427.5H727.619V428.5ZM737.524 428.5H740V427.5H737.524V428.5ZM740.5 428V425.523H739.5V428H740.5ZM740.5 420.568V415.614H739.5V420.568H740.5ZM740.5 410.659V405.705H739.5V410.659H740.5ZM740.5 400.75V395.795H739.5V400.75H740.5ZM740.5 390.841V385.886H739.5V390.841H740.5ZM740.5 380.932V375.977H739.5V380.932H740.5ZM740.5 371.023V366.068H739.5V371.023H740.5ZM740.5 361.114V356.159H739.5V361.114H740.5ZM740.5 351.205V346.25H739.5V351.205H740.5ZM740.5 341.295V336.341H739.5V341.295H740.5ZM740.5 331.386V326.432H739.5V331.386H740.5ZM740.5 321.477V319H739.5V321.477H740.5ZM740 318.5H737.524V319.5H740V318.5ZM732.571 318.5H727.619V319.5H732.571V318.5ZM722.667 318.5H717.714V319.5H722.667V318.5ZM712.762 318.5H707.81V319.5H712.762V318.5ZM702.857 318.5H697.905V319.5H702.857V318.5ZM692.952 318.5H688V319.5H692.952V318.5ZM683.048 318.5H678.095V319.5H683.048V318.5ZM673.143 318.5H668.19V319.5H673.143V318.5ZM663.238 318.5H658.286V319.5H663.238V318.5ZM653.333 318.5H648.381V319.5H653.333V318.5ZM643.429 318.5H638.476V319.5H643.429V318.5ZM633.524 318.5H628.571V319.5H633.524V318.5ZM623.619 318.5H618.667V319.5H623.619V318.5ZM613.714 318.5H608.762V319.5H613.714V318.5ZM603.81 318.5H598.857V319.5H603.81V318.5ZM593.905 318.5H588.952V319.5H593.905V318.5ZM584 318.5H579.048V319.5H584V318.5ZM574.095 318.5H569.143V319.5H574.095V318.5ZM564.191 318.5H559.238V319.5H564.191V318.5ZM554.286 318.5H549.333V319.5H554.286V318.5ZM544.381 318.5H539.429V319.5H544.381V318.5ZM534.476 318.5H532V319.5H534.476V318.5ZM532 319V318H531V319H532ZM740 319H741V318H740V319ZM532 428H531V429H532V428ZM740 428V429H741V428H740ZM-1 4.99999V7.50409H1V4.99999H-1ZM-1 12.5123V17.5205H1V12.5123H-1ZM-1 22.5287V27.5369H1V22.5287H-1ZM-1 32.5451V37.5533H1V32.5451H-1ZM-1 42.5615V47.5697H1V42.5615H-1ZM-1 52.5779V57.5861H1V52.5779H-1ZM-1 62.5943V67.6025H1V62.5943H-1ZM-1 72.6107V77.6189H1V72.6107H-1ZM-1 82.627V87.6352H1V82.627H-1ZM-1 92.6434V97.6516H1V92.6434H-1ZM-1 102.66V107.668H1V102.66H-1ZM-1 112.676V117.684H1V112.676H-1ZM-1 122.693V127.701H1V122.693H-1ZM-1 132.709V137.717H1V132.709H-1ZM-1 142.725V147.734H1V142.725H-1ZM-1 152.742V157.75H1V152.742H-1ZM-1 162.758V167.766H1V162.758H-1ZM-1 172.775V177.783H1V172.775H-1ZM-1 182.791V187.799H1V182.791H-1ZM-1 192.807V197.816H1V192.807H-1ZM-1 202.824V207.832H1V202.824H-1ZM-1 212.84V217.848H1V212.84H-1ZM-1 222.856V227.865H1V222.856H-1ZM-1 232.873V237.881H1V232.873H-1ZM-1 242.889V247.897H1V242.889H-1ZM-1 252.906V257.914H1V252.906H-1ZM-1 262.922V267.93H1V262.922H-1ZM-1 272.938V277.947H1V272.938H-1ZM-1 282.955V287.963H1V282.955H-1ZM-1 292.971V297.98H1V292.971H-1ZM-1 302.988V307.996H1V302.988H-1ZM-1 313.004V318.012H1V313.004H-1ZM-1 323.021V328.029H1V323.021H-1ZM-1 333.037V338.045H1V333.037H-1ZM-1 343.053V348.062H1V343.053H-1ZM-1 353.07V358.078H1V353.07H-1ZM-1 363.086V368.094H1V363.086H-1ZM-1 373.103V378.111H1V373.103H-1ZM-1 383.119V388.127H1V383.119H-1ZM-1 393.135V398.144H1V393.135H-1ZM-1 403.152V408.16H1V403.152H-1ZM-1 413.168V418.177H1V413.168H-1ZM-1 423.185V428.193H1V423.185H-1ZM-1 433.201V438.209H1V433.201H-1ZM-1 443.218V448.226H1V443.218H-1ZM-1 453.234V458.242H1V453.234H-1ZM-1 463.25V468.259H1V463.25H-1ZM-1 473.267V478.275H1V473.267H-1ZM-1 483.283V488.291H1V483.283H-1ZM-1 493.3V498.308H1V493.3H-1ZM-1 503.316V508.324H1V503.316H-1ZM-1 513.333V518.341H1V513.333H-1ZM-1 523.349V528.357H1V523.349H-1ZM-1 533.365V538.373H1V533.365H-1ZM-1 543.382V548.39H1V543.382H-1ZM-1 553.398V558.406H1V553.398H-1ZM-1 563.414V568.422H1V563.414H-1ZM-1 573.431V578.439H1V573.431H-1ZM-1 583.447V588.455H1V583.447H-1ZM-1 593.463V598.472H1V593.463H-1ZM-1 603.48V608.488H1V603.48H-1ZM-1 613.496V616H1V613.496H-1ZM-1 616C-1 616.812 -0.838261 617.588 -0.544313 618.297L1.30313 617.531C1.10813 617.061 1 616.544 1 616H-1ZM2.70303 621.544C3.41187 621.838 4.18832 622 5.00003 622V620C4.45582 620 3.93939 619.892 3.46914 619.697L2.70303 621.544ZM5.00003 622H7.50003V620H5.00003V622ZM12.5 622H17.5V620H12.5V622ZM22.5 622H27.5V620H22.5V622ZM32.5 622H37.5V620H32.5V622ZM42.5 622H47.5V620H42.5V622ZM52.5 622H57.5V620H52.5V622ZM62.5 622H67.5V620H62.5V622ZM72.5 622H77.5V620H72.5V622ZM82.5 622H87.5V620H82.5V622ZM92.5 622H97.5V620H92.5V622ZM102.5 622H107.5V620H102.5V622ZM112.5 622H117.5V620H112.5V622ZM122.5 622H127.5V620H122.5V622ZM132.5 622H137.5V620H132.5V622ZM142.5 622H147.5V620H142.5V622ZM152.5 622H157.5V620H152.5V622ZM162.5 622H167.5V620H162.5V622ZM172.5 622H177.5V620H172.5V622ZM182.5 622H187.5V620H182.5V622ZM192.5 622H197.5V620H192.5V622ZM202.5 622H207.5V620H202.5V622ZM212.5 622H217.5V620H212.5V622ZM222.5 622H227.5V620H222.5V622ZM232.5 622H237.5V620H232.5V622ZM242.5 622H247.5V620H242.5V622ZM252.5 622H257.5V620H252.5V622ZM262.5 622H267.5V620H262.5V622ZM272.5 622H277.5V620H272.5V622ZM282.5 622H287.5V620H282.5V622ZM292.5 622H297.5V620H292.5V622ZM302.5 622H307.5V620H302.5V622ZM312.5 622H317.5V620H312.5V622ZM322.5 622H327.5V620H322.5V622ZM332.5 622H337.5V620H332.5V622ZM342.5 622H347.5V620H342.5V622ZM352.5 622H357.5V620H352.5V622ZM362.5 622H367.5V620H362.5V622ZM372.5 622H377.5V620H372.5V622ZM382.5 622H387.5V620H382.5V622ZM392.5 622H397.5V620H392.5V622ZM402.5 622H407.5V620H402.5V622ZM412.5 622H417.5V620H412.5V622ZM422.5 622H427.5V620H422.5V622ZM432.5 622H437.5V620H432.5V622ZM442.5 622H447.5V620H442.5V622ZM452.5 622H457.5V620H452.5V622ZM462.5 622H467.5V620H462.5V622ZM472.5 622H477.5V620H472.5V622ZM482.5 622H487.5V620H482.5V622ZM492.5 622H497.5V620H492.5V622ZM502.5 622H507.5V620H502.5V622ZM512.5 622H517.5V620H512.5V622ZM522.5 622H527.5V620H522.5V622ZM532.5 622H537.5V620H532.5V622ZM542.5 622H547.5V620H542.5V622ZM552.5 622H557.5V620H552.5V622ZM562.5 622H567.5V620H562.5V622ZM572.5 622H577.5V620H572.5V622ZM582.5 622H587.5V620H582.5V622ZM592.5 622H597.5V620H592.5V622ZM602.5 622H607.5V620H602.5V622ZM612.5 622H617.5V620H612.5V622ZM622.5 622H627.5V620H622.5V622ZM632.5 622H637.5V620H632.5V622ZM642.5 622H647.5V620H642.5V622ZM652.5 622H657.5V620H652.5V622ZM662.5 622H667.5V620H662.5V622ZM672.5 622H677.5V620H672.5V622ZM682.5 622H687.5V620H682.5V622ZM692.5 622H697.5V620H692.5V622ZM702.5 622H707.5V620H702.5V622ZM712.5 622H717.5V620H712.5V622ZM722.5 622H727.5V620H722.5V622ZM732.5 622H737.5V620H732.5V622ZM742.5 622H747.5V620H742.5V622ZM752.5 622H757.5V620H752.5V622ZM762.5 622H767.5V620H762.5V622ZM772.5 622H777.5V620H772.5V622ZM782.5 622H787.5V620H782.5V622ZM792.5 622H797.5V620H792.5V622ZM802.5 622H807.5V620H802.5V622ZM812.5 622H817.5V620H812.5V622ZM822.5 622H827.5V620H822.5V622ZM832.5 622H837.5V620H832.5V622ZM842.5 622H847.5V620H842.5V622ZM852.5 622H857.5V620H852.5V622ZM862.5 622H867.5V620H862.5V622ZM872.5 622H877.5V620H872.5V622ZM882.5 622H887.5V620H882.5V622ZM892.5 622H897.5V620H892.5V622ZM902.5 622H907.5V620H902.5V622ZM912.5 622H917.5V620H912.5V622ZM922.5 622H927.5V620H922.5V622ZM932.5 622H937.5V620H932.5V622ZM942.5 622H947.5V620H942.5V622ZM952.5 622H957.5V620H952.5V622ZM962.5 622H967.5V620H962.5V622ZM972.5 622H977.5V620H972.5V622ZM982.5 622H987.5V620H982.5V622ZM992.5 622H997.5V620H992.5V622ZM1002.5 622H1007.5V620H1002.5V622ZM1012.5 622H1017.5V620H1012.5V622ZM1022.5 622H1027.5V620H1022.5V622ZM1032.5 622H1037.5V620H1032.5V622ZM1042.5 622H1045V620H1042.5V622ZM1045 622C1045.81 622 1046.59 621.838 1047.3 621.544L1046.53 619.697C1046.06 619.892 1045.54 620 1045 620V622ZM1050.54 618.297C1050.84 617.588 1051 616.812 1051 616H1049C1049 616.544 1048.89 617.061 1048.7 617.531L1050.54 618.297ZM1051 616V613.496H1049V616H1051ZM1051 608.488V603.479H1049V608.488H1051ZM1051 598.471V593.463H1049V598.471H1051ZM1051 588.455V583.447H1049V588.455H1051ZM1051 578.439V573.43H1049V578.439H1051ZM1051 568.422V563.414H1049V568.422H1051ZM1051 558.406V553.398H1049V558.406H1051ZM1051 548.389V543.381H1049V548.389H1051ZM1051 538.373V533.365H1049V538.373H1051ZM1051 528.357V523.348H1049V528.357H1051ZM1051 518.34V513.332H1049V518.34H1051ZM1051 508.324V503.316H1049V508.324H1051ZM1051 498.307V493.299H1049V498.307H1051ZM1051 488.291V483.283H1049V488.291H1051ZM1051 478.275V473.266H1049V478.275H1051ZM1051 468.258V463.25H1049V468.258H1051ZM1051 458.242V453.234H1049V458.242H1051ZM1051 448.225V443.217H1049V448.225H1051ZM1051 438.209V433.201H1049V438.209H1051ZM1051 428.193V423.184H1049V428.193H1051ZM1051 418.176V413.168H1049V418.176H1051ZM1051 408.16V403.152H1049V408.16H1051ZM1051 398.143V393.135H1049V398.143H1051ZM1051 388.127V383.119H1049V388.127H1051ZM1051 378.111V373.103H1049V378.111H1051ZM1051 368.094V363.086H1049V368.094H1051ZM1051 358.078V353.07H1049V358.078H1051ZM1051 348.062V343.053H1049V348.062H1051ZM1051 338.045V333.037H1049V338.045H1051ZM1051 328.029V323.02H1049V328.029H1051ZM1051 318.012V313.004H1049V318.012H1051ZM1051 307.996V302.988H1049V307.996H1051ZM1051 297.979V292.971H1049V297.979H1051ZM1051 287.963V282.955H1049V287.963H1051ZM1051 277.947V272.938H1049V277.947H1051ZM1051 267.93V262.922H1049V267.93H1051ZM1051 257.914V252.906H1049V257.914H1051ZM1051 247.897V242.889H1049V247.897H1051ZM1051 237.881V232.873H1049V237.881H1051ZM1051 227.864V222.856H1049V227.864H1051ZM1051 217.848V212.84H1049V217.848H1051ZM1051 207.832V202.823H1049V207.832H1051ZM1051 197.815V192.807H1049V197.815H1051ZM1051 187.799V182.791H1049V187.799H1051ZM1051 177.782V172.774H1049V177.782H1051ZM1051 167.766V162.758H1049V167.766H1051ZM1051 157.75V152.741H1049V157.75H1051ZM1051 147.733V142.725H1049V147.733H1051ZM1051 137.717V132.709H1049V137.717H1051ZM1051 127.7V122.692H1049V127.7H1051ZM1051 117.684V112.676H1049V117.684H1051ZM1051 107.667V102.659H1049V107.667H1051ZM1051 97.6511V92.6429H1049V97.6511H1051ZM1051 87.6348V82.6266H1049V87.6348H1051ZM1051 77.6184V72.6102H1049V77.6184H1051ZM1051 67.6021V62.5939H1049V67.6021H1051ZM1051 57.5857V52.5775H1049V57.5857H1051ZM1051 47.5693V42.5611H1049V47.5693H1051ZM1051 37.553V32.5448H1049V37.553H1051ZM1051 27.5366V22.5285H1049V27.5366H1051ZM1051 17.5203V12.5121H1049V17.5203H1051ZM1051 7.50391V5H1049V7.50391H1051ZM1051 5C1051 4.18829 1050.84 3.41184 1050.54 2.70301L1048.7 3.46913C1048.89 3.93937 1049 4.4558 1049 5H1051ZM1047.3 -0.544311C1046.59 -0.838259 1045.81 -1 1045 -1V1C1045.54 1 1046.06 1.10813 1046.53 1.30314L1047.3 -0.544311ZM1045 -1H1042.5V1H1045V-1ZM1037.5 -1H1032.5V1H1037.5V-1ZM1027.5 -1H1022.5V1H1027.5V-1ZM1017.5 -1H1012.5V1H1017.5V-1ZM1007.5 -1H1002.5V1H1007.5V-1ZM997.5 -1H992.5V1H997.5V-1ZM987.5 -1H982.5V1H987.5V-1ZM977.5 -1H972.5V1H977.5V-1ZM967.5 -1H962.5V1H967.5V-1ZM957.5 -1H952.5V1H957.5V-1ZM947.5 -1H942.5V1H947.5V-1ZM937.5 -1H932.5V1H937.5V-1ZM927.5 -1H922.5V1H927.5V-1ZM917.5 -1H912.5V1H917.5V-1ZM907.5 -1H902.5V1H907.5V-1ZM897.5 -1H892.5V1H897.5V-1ZM887.5 -1H882.5V1H887.5V-1ZM877.5 -1H872.5V1H877.5V-1ZM867.5 -1H862.5V1H867.5V-1ZM857.5 -1H852.5V1H857.5V-1ZM847.5 -1H842.5V1H847.5V-1ZM837.5 -1H832.5V1H837.5V-1ZM827.5 -1H822.5V1H827.5V-1ZM817.5 -1H812.5V1H817.5V-1ZM807.5 -1H802.5V1H807.5V-1ZM797.5 -1H792.5V1H797.5V-1ZM787.5 -1H782.5V1H787.5V-1ZM777.5 -1H772.5V1H777.5V-1ZM767.5 -1H762.5V1H767.5V-1ZM757.5 -1H752.5V1H757.5V-1ZM747.5 -1H742.5V1H747.5V-1ZM737.5 -1H732.5V1H737.5V-1ZM727.5 -1H722.5V1H727.5V-1ZM717.5 -1H712.5V1H717.5V-1ZM707.5 -1H702.5V1H707.5V-1ZM697.5 -1H692.5V1H697.5V-1ZM687.5 -1H682.5V1H687.5V-1ZM677.5 -1H672.5V1H677.5V-1ZM667.5 -1H662.5V1H667.5V-1ZM657.5 -1H652.5V1H657.5V-1ZM647.5 -1H642.5V1H647.5V-1ZM637.5 -1H632.5V1H637.5V-1ZM627.5 -1H622.5V1H627.5V-1ZM617.5 -1H612.5V1H617.5V-1ZM607.5 -1H602.5V1H607.5V-1ZM597.5 -1H592.5V1H597.5V-1ZM587.5 -1H582.5V1H587.5V-1ZM577.5 -1H572.5V1H577.5V-1ZM567.5 -1H562.5V1H567.5V-1ZM557.5 -1H552.5V1H557.5V-1ZM547.5 -1H542.5V1H547.5V-1ZM537.5 -1H532.5V1H537.5V-1ZM527.5 -1H522.5V1H527.5V-1ZM517.5 -1H512.5V1H517.5V-1ZM507.5 -1H502.5V1H507.5V-1ZM497.5 -1H492.5V1H497.5V-1ZM487.5 -1H482.5V1H487.5V-1ZM477.5 -1H472.5V1H477.5V-1ZM467.5 -1H462.5V1H467.5V-1ZM457.5 -1H452.5V1H457.5V-1ZM447.5 -1H442.5V1H447.5V-1ZM437.5 -1H432.5V1H437.5V-1ZM427.5 -1H422.5V1H427.5V-1ZM417.5 -1H412.5V1H417.5V-1ZM407.5 -1H402.5V1H407.5V-1ZM397.5 -1H392.5V1H397.5V-1ZM387.5 -1H382.5V1H387.5V-1ZM377.5 -1H372.5V1H377.5V-1ZM367.5 -1H362.5V1H367.5V-1ZM357.5 -1H352.5V1H357.5V-1ZM347.5 -1H342.5V1H347.5V-1ZM337.5 -1H332.5V1H337.5V-1ZM327.5 -1H322.5V1H327.5V-1ZM317.5 -1H312.5V1H317.5V-1ZM307.5 -1H302.5V1H307.5V-1ZM297.5 -1H292.5V1H297.5V-1ZM287.5 -1H282.5V1H287.5V-1ZM277.5 -1H272.5V1H277.5V-1ZM267.5 -1H262.5V1H267.5V-1ZM257.5 -1H252.5V1H257.5V-1ZM247.5 -1H242.5V1H247.5V-1ZM237.5 -1H232.5V1H237.5V-1ZM227.5 -1H222.5V1H227.5V-1ZM217.5 -1H212.5V1H217.5V-1ZM207.5 -1H202.5V1H207.5V-1ZM197.5 -1H192.5V1H197.5V-1ZM187.5 -1H182.5V1H187.5V-1ZM177.5 -1H172.5V1H177.5V-1ZM167.5 -1H162.5V1H167.5V-1ZM157.5 -1H152.5V1H157.5V-1ZM147.5 -1H142.5V1H147.5V-1ZM137.5 -1H132.5V1H137.5V-1ZM127.5 -1H122.5V1H127.5V-1ZM117.5 -1H112.5V1H117.5V-1ZM107.5 -1H102.5V1H107.5V-1ZM97.5 -1H92.5V1H97.5V-1ZM87.5 -1H82.5V1H87.5V-1ZM77.5 -1H72.5V1H77.5V-1ZM67.5 -1H62.5V1H67.5V-1ZM57.5 -1H52.5V1H57.5V-1ZM47.5 -1H42.5V1H47.5V-1ZM37.5 -1H32.5V1H37.5V-1ZM27.5 -1H22.5V1H27.5V-1ZM17.5 -1H12.5V1H17.5V-1ZM7.50001 -1H5V1H7.50001V-1ZM5 -1C4.18829 -1 3.41184 -0.838266 2.70301 -0.544326L3.46911 1.30313C3.93936 1.10813 4.45579 1 5 1V-1ZM-0.544323 2.703C-0.838265 3.41183 -1 4.18828 -1 4.99999H1C1 4.45578 1.10813 3.93935 1.30313 3.46911L-0.544323 2.703ZM531 319V321.477H533V319H531ZM531 326.432V331.386H533V326.432H531ZM531 336.341V341.295H533V336.341H531ZM531 346.25V351.205H533V346.25H531ZM531 356.159V361.114H533V356.159H531ZM531 366.068V371.023H533V366.068H531ZM531 375.977V380.932H533V375.977H531ZM531 385.886V390.841H533V385.886H531ZM531 395.795V400.75H533V395.795H531ZM531 405.705V410.659H533V405.705H531ZM531 415.614V420.568H533V415.614H531ZM531 425.523V428H533V425.523H531ZM532 429H534.476V427H532V429ZM539.429 429H544.381V427H539.429V429ZM549.333 429H554.286V427H549.333V429ZM559.238 429H564.19V427H559.238V429ZM569.143 429H574.095V427H569.143V429ZM579.048 429H584V427H579.048V429ZM588.952 429H593.905V427H588.952V429ZM598.857 429H603.81V427H598.857V429ZM608.762 429H613.714V427H608.762V429ZM618.667 429H623.619V427H618.667V429ZM628.571 429H633.524V427H628.571V429ZM638.476 429H643.429V427H638.476V429ZM648.381 429H653.333V427H648.381V429ZM658.286 429H663.238V427H658.286V429ZM668.19 429H673.143V427H668.19V429ZM678.095 429H683.048V427H678.095V429ZM688 429H692.952V427H688V429ZM697.905 429H702.857V427H697.905V429ZM707.809 429H712.762V427H707.809V429ZM717.714 429H722.667V427H717.714V429ZM727.619 429H732.571V427H727.619V429ZM737.524 429H740V427H737.524V429ZM741 428V425.523H739V428H741ZM741 420.568V415.614H739V420.568H741ZM741 410.659V405.705H739V410.659H741ZM741 400.75V395.795H739V400.75H741ZM741 390.841V385.886H739V390.841H741ZM741 380.932V375.977H739V380.932H741ZM741 371.023V366.068H739V371.023H741ZM741 361.114V356.159H739V361.114H741ZM741 351.205V346.25H739V351.205H741ZM741 341.295V336.341H739V341.295H741ZM741 331.386V326.432H739V331.386H741ZM741 321.477V319H739V321.477H741ZM740 318H737.524V320H740V318ZM732.571 318H727.619V320H732.571V318ZM722.667 318H717.714V320H722.667V318ZM712.762 318H707.81V320H712.762V318ZM702.857 318H697.905V320H702.857V318ZM692.952 318H688V320H692.952V318ZM683.048 318H678.095V320H683.048V318ZM673.143 318H668.19V320H673.143V318ZM663.238 318H658.286V320H663.238V318ZM653.333 318H648.381V320H653.333V318ZM643.429 318H638.476V320H643.429V318ZM633.524 318H628.571V320H633.524V318ZM623.619 318H618.667V320H623.619V318ZM613.714 318H608.762V320H613.714V318ZM603.81 318H598.857V320H603.81V318ZM593.905 318H588.952V320H593.905V318ZM584 318H579.048V320H584V318ZM574.095 318H569.143V320H574.095V318ZM564.191 318H559.238V320H564.191V318ZM554.286 318H549.333V320H554.286V318ZM544.381 318H539.429V320H544.381V318ZM534.476 318H532V320H534.476V318Z" fill="white" mask="url(#path-1-inside-1_738_2945)"/>
</svg>
