<svg width="74" height="66" viewBox="0 0 74 66" fill="none" xmlns="http://www.w3.org/2000/svg">
<path d="M10.3862 33.2978H6.38235V10.9431H10.3862V4.60376H3.75763C1.71123 4.60376 0.042971 6.27202 0.042971 8.31841V35.9448C0.042971 37.9912 1.71123 39.6594 3.75763 39.6594H10.3862V33.2978Z" fill="#0039D8"/>
<path d="M70.2645 4.60376H63.4135V10.9431H67.6398V33.2978H63.4135V39.6372H70.2867C72.3331 39.6372 74.0014 37.9689 74.0014 35.9225V8.31841C74.0014 6.24977 72.3331 4.60376 70.2645 4.60376Z" fill="#0039D8"/>
<path d="M39.4396 9.63065C45.2674 10.7651 49.6938 15.9033 49.6938 22.0647C49.6938 24.6895 48.893 27.1362 47.514 29.1604L54.3204 35.9669C57.3678 32.1633 59.214 27.3364 59.214 22.087C59.214 10.6539 50.5613 1.22263 39.4396 0.0214855V9.63065Z" fill="#0039D8"/>
<path d="M44.1091 32.5644C42.0849 33.9435 39.6382 34.7443 37.0134 34.7443C30.029 34.7443 24.3569 29.0722 24.3569 22.0877C24.3569 15.9263 28.7834 10.7881 34.6111 9.65365V0C23.4894 1.20115 14.8367 10.6101 14.8367 22.0655C14.8367 34.3216 24.7795 44.2644 37.0357 44.2644C42.2851 44.2644 47.1342 42.4405 50.9156 39.3709L44.1091 32.5644Z" fill="#0039D8"/>
<path d="M5.36067 62.7491C5.24945 62.6157 5.18272 62.3265 5.11599 61.8816H5.09375C4.87131 62.2153 4.58215 62.4822 4.22625 62.6602C3.87036 62.8381 3.381 62.9271 2.75819 62.9271C1.93518 62.9271 1.26788 62.7269 0.756277 62.3043C0.244678 61.8816 0 61.2811 0 60.5248C0 59.724 0.266921 59.1457 0.823007 58.7676C1.37909 58.3894 2.15761 58.1447 3.15857 57.989C3.8926 57.8778 4.4042 57.7888 4.67112 57.6776C4.93804 57.5664 5.0715 57.3885 5.0715 57.0993C5.0715 56.8101 4.96029 56.5877 4.73785 56.4098C4.51542 56.2318 4.18177 56.1651 3.75914 56.1651C2.80267 56.1651 2.29107 56.5432 2.24659 57.2772H0.400382C0.422625 56.521 0.734034 55.9204 1.31236 55.4088C1.89069 54.9194 2.7137 54.6748 3.80363 54.6748C6.00573 54.6748 7.1179 55.6535 7.1179 57.5886V61.5925C7.1179 62.193 7.20687 62.5489 7.38482 62.6824V62.7491H5.36067ZM3.26979 61.4813C3.84811 61.4813 4.29298 61.3255 4.62664 61.0364C4.96029 60.7472 5.11599 60.3913 5.11599 59.9687V58.7898C4.89356 58.9233 4.4042 59.079 3.64792 59.2569C3.04735 59.3904 2.62473 59.5461 2.38005 59.7018C2.13537 59.8797 2.00191 60.1244 2.00191 60.4803C2.0464 61.1476 2.46902 61.4813 3.26979 61.4813Z" fill="#231F20"/>
<path d="M10.6105 54.8738V55.9414H10.655C11.1889 55.0739 11.9674 54.6513 12.9906 54.6513C13.7914 54.6513 14.4587 54.9182 14.948 55.4743C15.4596 56.0304 15.7043 56.7422 15.7043 57.6097V62.7479H13.6134V57.9211C13.6134 57.4985 13.5022 57.1426 13.2575 56.8757C13.0128 56.6087 12.6792 56.4753 12.2566 56.4753C11.7894 56.4753 11.4113 56.6532 11.1221 56.9869C10.8107 57.3205 10.6773 57.7654 10.6773 58.2992V62.7702H8.58639V54.896H10.6105V54.8738Z" fill="#231F20"/>
<path d="M22.1311 62.7491C22.0199 62.6157 21.9531 62.3265 21.8864 61.8816H21.8642C21.6417 62.2153 21.3526 62.4822 20.9967 62.6602C20.6408 62.8381 20.1514 62.9271 19.5286 62.9271C18.7056 62.9271 18.0383 62.7269 17.5267 62.3043C17.0151 61.8816 16.7704 61.2811 16.7704 60.5248C16.7704 59.724 17.0373 59.1457 17.5934 58.7676C18.1495 58.3894 18.928 58.1447 19.929 57.989C20.663 57.8778 21.1746 57.7888 21.4415 57.6776C21.7085 57.5664 21.8419 57.3885 21.8419 57.0993C21.8419 56.8101 21.7307 56.5877 21.5083 56.4098C21.2858 56.2318 20.9522 56.1651 20.5296 56.1651C19.5731 56.1651 19.0615 56.5432 19.017 57.2772H17.1486C17.1708 56.521 17.4822 55.9204 18.0605 55.4088C18.6389 54.9194 19.4619 54.6748 20.5518 54.6748C22.7539 54.6748 23.8661 55.6535 23.8661 57.5886V61.5925C23.8661 62.193 23.955 62.5489 24.133 62.6824V62.7491H22.1311ZM20.0402 61.4813C20.6185 61.4813 21.0634 61.3255 21.3971 61.0364C21.7307 60.7472 21.8864 60.3913 21.8864 59.9687V58.7898C21.664 58.9233 21.1746 59.079 20.4183 59.2569C19.8178 59.3904 19.3951 59.5461 19.1505 59.7018C18.9058 59.8797 18.7723 60.1244 18.7723 60.4803C18.7946 61.1476 19.2172 61.4813 20.0402 61.4813Z" fill="#231F20"/>
<path d="M25.3568 62.7483V53.1391C25.3568 52.7388 25.6905 52.4051 26.0908 52.4051H27.4477V62.7483H25.3568Z" fill="#231F20"/>
<path d="M29.1604 65.3292V63.6831H29.8945C30.673 63.6831 31.0511 63.3273 31.0511 62.6155C31.0511 62.2596 30.8509 61.5478 30.4506 60.4801L28.3374 54.8747H30.5395L31.6962 58.4115L32.2078 60.1242H32.23C32.4525 59.4569 33.7871 54.8525 33.7871 54.8525H35.9002L33.1643 62.9491C32.8529 63.8611 32.5192 64.4617 32.1188 64.8176C31.7407 65.1512 31.1623 65.3292 30.3838 65.3292H29.1604Z" fill="#231F20"/>
<path d="M36.5449 56.2525V54.8734H36.923C37.3234 54.8734 37.6348 54.562 37.6348 54.1616V52.4266H39.6812V54.8734H41.0381V56.2525H39.6812V60.4342C39.6812 60.9458 39.9481 61.2128 40.4597 61.2128L41.0826 61.1905V62.7253C40.7712 62.7476 40.3263 62.7476 39.7702 62.7476C39.1696 62.7476 38.658 62.5918 38.2576 62.3027C37.8573 62.0135 37.6348 61.5242 37.6348 60.8569V56.2302H36.5449V56.2525Z" fill="#231F20"/>
<path d="M44.3548 54.874H42.2639V62.7482H44.3548V54.874Z" fill="#231F20"/>
<path d="M49.5155 62.9938C48.2922 62.9938 47.3134 62.5934 46.5794 61.8149C45.8454 61.0364 45.4672 60.0354 45.4672 58.8343C45.4672 57.6331 45.8231 56.6544 46.5572 55.8537C47.269 55.0751 48.2254 54.6748 49.4043 54.6748C50.4053 54.6748 51.206 54.9417 51.8289 55.4533C52.4517 55.9649 52.8298 56.6767 52.9855 57.5664H50.9391C50.8724 57.2105 50.6945 56.9213 50.4498 56.6989C50.1829 56.4765 49.8714 56.3653 49.4933 56.3653C48.8705 56.3653 48.4034 56.5877 48.0697 57.0326C47.7361 57.4774 47.5804 58.078 47.5804 58.8565C47.5804 59.635 47.7361 60.2356 48.0475 60.6805C48.3589 61.1254 48.826 61.3478 49.4488 61.3478C50.3608 61.3478 50.8946 60.9029 51.0281 60.0132H53.03C52.9633 60.8807 52.6074 61.5925 51.9623 62.1708C51.3618 62.7046 50.5387 62.9938 49.5155 62.9938Z" fill="#231F20"/>
<path d="M59.2346 62.7491C59.1234 62.6157 59.0567 62.3265 58.9899 61.8816H58.9677C58.7452 62.2153 58.4561 62.4822 58.1002 62.6602C57.7443 62.8381 57.2549 62.9271 56.6321 62.9271C55.8091 62.9271 55.1418 62.7269 54.6302 62.3043C54.1186 61.8816 53.8739 61.2811 53.8739 60.5248C53.8739 59.724 54.1409 59.1457 54.6969 58.7676C55.253 58.3894 56.0315 58.1447 57.0325 57.989C57.7665 57.8778 58.2781 57.7888 58.5451 57.6776C58.812 57.5664 58.9454 57.3885 58.9454 57.0993C58.9454 56.8101 58.8342 56.5877 58.6118 56.4098C58.3894 56.2318 58.0557 56.1651 57.6331 56.1651C56.6766 56.1651 56.165 56.5432 56.1205 57.2772H54.2521C54.2743 56.521 54.5857 55.9204 55.1641 55.4088C55.7424 54.9194 56.5654 54.6748 57.6553 54.6748C59.8574 54.6748 60.9696 55.6535 60.9696 57.5886V61.5925C60.9696 62.193 61.0586 62.5489 61.2365 62.6824V62.7491H59.2346ZM57.1437 61.4813C57.722 61.4813 58.1669 61.3255 58.5006 61.0364C58.8342 60.7472 58.9899 60.3913 58.9899 59.9687V58.7898C58.7675 58.9233 58.2781 59.079 57.5219 59.2569C56.9213 59.3904 56.4987 59.5461 56.254 59.7018C56.0093 59.8797 55.8758 60.1244 55.8758 60.4803C55.9203 61.1476 56.3207 61.4813 57.1437 61.4813Z" fill="#231F20"/>
<path d="M62.4369 62.7491V54.875H64.4388V55.9426H64.4833C64.9949 55.0974 65.7512 54.6748 66.7744 54.6748C67.2637 54.6748 67.7086 54.8082 68.0867 55.0529C68.4649 55.2976 68.754 55.6312 68.9542 56.0539H68.9765C69.5548 55.1419 70.3333 54.6748 71.3343 54.6748C72.1573 54.6748 72.7801 54.9194 73.2472 55.4088C73.6921 55.8982 73.9367 56.5877 73.9367 57.4552V62.7491H71.8681V57.8111C71.8681 56.8991 71.4677 56.4542 70.6447 56.4542C70.1998 56.4542 69.8662 56.6099 69.5993 56.9213C69.3546 57.2328 69.2211 57.6554 69.2211 58.167V62.7491H67.1303V57.8111C67.1303 56.8991 66.7299 56.4542 65.9069 56.4542C65.4842 56.4542 65.1506 56.6099 64.8837 56.9213C64.6167 57.2328 64.4833 57.6554 64.4833 58.167V62.7491H62.4369Z" fill="#231F20"/>
<path d="M43.3094 54.5175C43.8868 54.5175 44.3548 54.0494 44.3548 53.472C44.3548 52.8947 43.8868 52.4266 43.3094 52.4266C42.732 52.4266 42.2639 52.8947 42.2639 53.472C42.2639 54.0494 42.732 54.5175 43.3094 54.5175Z" fill="#231F20"/>
</svg>
