<?xml version="1.0" encoding="utf-8"?>
<svg xmlns="http://www.w3.org/2000/svg" width="65" height="65" viewBox="0 0 65 65">
  <g id="i-Line_crossing_detection_car" data-name="i-Line crossing detection / car" transform="translate(-3341.504 -1397.872)">
    <g id="_047-home-5" data-name=" 047-home-5">
      <path id="Path_783-5" data-name="Path 783-5" d="M3394.317,1462.872h-40.626a12.185,12.185,0,0,1-12.187-12.183v-40.63a12.184,12.184,0,0,1,12.183-12.187h40.63a12.187,12.187,0,0,1,12.187,12.185v40.627a12.188,12.188,0,0,1-12.186,12.188Z" fill="#f5e6fe"/>
    </g>
    <line id="Line_86" data-name="Line 86" y1="11.842" x2="7.013" transform="translate(3389.47 1418.53)" fill="none" stroke="#be63f9" stroke-linecap="round" stroke-miterlimit="10" stroke-width="2"/>
    <line id="Line_87" data-name="Line 87" y1="12.596" x2="7.46" transform="translate(3377.157 1438.565)" fill="none" stroke="#be63f9" stroke-linecap="round" stroke-miterlimit="10" stroke-width="2"/>
    <g id="Group_1851" data-name="Group 1851">
      <g id="Group_1849" data-name="Group 1849">
        <circle id="Ellipse_301" data-name="Ellipse 301" cx="3.72" cy="3.72" r="3.72" transform="translate(3380.739 1434.845)" fill="#d9a4fc"/>
      </g>
      <g id="Group_1850" data-name="Group 1850">
        <circle id="Ellipse_302" data-name="Ellipse 302" cx="3.72" cy="3.72" r="3.72" transform="translate(3359.829 1434.845)" fill="#d9a4fc"/>
      </g>
      <path id="Path_1157" data-name="Path 1157" d="M3386.872,1426.5c-1.433,0-1.408.025-2.853-1.7-1.316-1.569-4.349-5.317-4.349-5.317a3.516,3.516,0,0,0-2.449-1.027h-11.26a2.114,2.114,0,0,0-1.968,1.027s-2.951,3.833-4.136,5.412-1.159,1.6-2.618,1.6H3354.7a1.612,1.612,0,0,0-1.609,1.609v8.042a1.611,1.611,0,0,0,1.609,1.608h3.207a5.693,5.693,0,0,1,11.279,0h9.632a5.692,5.692,0,0,1,11.278,0h3.207a1.612,1.612,0,0,0,1.609-1.608v-3.217C3394.914,1431.338,3393.262,1426.5,3386.872,1426.5Zm-24.373,0,3.326-4.429s.476-.4.689-.4h4.273v4.825Zm11.5,0v-4.825h2.653a2.065,2.065,0,0,1,1.2.437l3.578,4.388Z" fill="#d9a4fc"/>
    </g>
  </g>
</svg>
